[
 {"cgit": "ConsoleKit", "gitlab": "archived-projects/consolekit"},
 {"cgit": "ModemManager/ModemManager", "gitlab": "mobile-broadband/ModemManager"},
 {"cgit": "NetworkManager/NetworkManager", "gitlab": "NetworkManager/NetworkManager"},
 {"cgit": "SyncEvolution/libsynthesis", "gitlab": "SyncEvolution/libsynthesis"},
 {"cgit": "SyncEvolution/syncevolution", "gitlab": "SyncEvolution/syncevolution"},
 {"cgit": "accountsservice", "gitlab": "accountsservice/accountsservice"},
 {"cgit": "apoc-agent", "gitlab": "archived-projects/apoc/apoc-agent"},
 {"cgit": "apoc-firefox-adapter", "gitlab": "archived-projects/apoc/apoc-firefox-adapter"},
 {"cgit": "apoc-manager", "gitlab": "archived-projects/apoc/apoc-manager"},
 {"cgit": "apoc-profile-editor", "gitlab": "archived-projects/apoc/apoc-profile-editor"},
 {"cgit": "apoc-spi", "gitlab": "archived-projects/apoc/apoc-spi"},
 {"cgit": "apoc-template-packages", "gitlab": "archived-projects/apoc/apoc-template-packages"},
 {"cgit": "avivo/xf86-video-avivo", "gitlab": "xorg/driver/xf86-video-avivo"},
 {"cgit": "beignet", "gitlab": "beignet/beignet"},
 {"cgit": "bustle", "gitlab": "bustle/bustle"},
 {"cgit": "cairo-traces", "gitlab": "cairo/cairo-traces"},
 {"cgit": "cairo", "gitlab": "cairo/cairo"},
 {"cgit": "cairomm", "gitlab": "cairo/cairomm"},
 {"cgit": "ccss", "gitlab": "archived-projects/ccss"},
 {"cgit": "cups-pk-helper", "gitlab": "cups-pk-helper/cups-pk-helper"},
 {"cgit": "dbus/dbus-doc", "gitlab": "dbus/dbus-doc"},
 {"cgit": "dbus/dbus-glib", "gitlab": "dbus/dbus-glib"},
 {"cgit": "dbus/dbus-java", "gitlab": "dbus/dbus-java"},
 {"cgit": "dbus/dbus-mono", "gitlab": "dbus/dbus-mono"},
 {"cgit": "dbus/dbus-python", "gitlab": "dbus/dbus-python"},
 {"cgit": "dbus/dbus-qt", "gitlab": "dbus/dbus-qt"},
 {"cgit": "dbus/dbus-qt3", "gitlab": "dbus/dbus-qt3"},
 {"cgit": "dbus/dbus-test", "gitlab": "dbus/dbus-test"},
 {"cgit": "dbus/dbus", "gitlab": "dbus/dbus"},
 {"cgit": "dolt", "gitlab": "archived-projects/dolt"},
 {"cgit": "drm_hwcomposer", "gitlab": "drm-hwcomposer/drm-hwcomposer"},
 {"cgit": "evemu", "gitlab": "libevdev/evemu"},
 {"cgit": "evtest", "gitlab": "libevdev/evtest"},
 {"cgit": "exempi", "gitlab": "libopenraw/exempi"},
 {"cgit": "ezbench", "gitlab": "gfx-ci/ezbench"},
 {"cgit": "fontconfig", "gitlab": "fontconfig/fontconfig"},
 {"cgit": "geoclue", "gitlab": "geoclue/geoclue"},
 {"cgit": "glitz", "gitlab": "xorg/driver/glitz-history"},
 {"cgit": "glu3", "gitlab": "archived-projects/glu3"},
 {"cgit": "gstreamer/cerbero", "gitlab": "gstreamer/cerbero"},
 {"cgit": "gstreamer/common", "gitlab": "gstreamer/common"},
 {"cgit": "gstreamer/gst-build", "gitlab": "gstreamer/gst-build"},
 {"cgit": "gstreamer/gst-ci", "gitlab": "gstreamer/gst-ci"},
 {"cgit": "gstreamer/gst-devtools", "gitlab": "gstreamer/gst-devtools"},
 {"cgit": "gstreamer/gst-docs", "gitlab": "gstreamer/gst-docs"},
 {"cgit": "gstreamer/gst-editing-services", "gitlab": "gstreamer/gst-editing-services"},
 {"cgit": "gstreamer/gst-examples", "gitlab": "gstreamer/gst-examples"},
 {"cgit": "gstreamer/gst-integration-testsuites", "gitlab": "gstreamer/gst-integration-testsuites"},
 {"cgit": "gstreamer/gst-libav", "gitlab": "gstreamer/gst-libav"},
 {"cgit": "gstreamer/gst-omx", "gitlab": "gstreamer/gst-omx"},
 {"cgit": "gstreamer/gst-plugins-bad", "gitlab": "gstreamer/gst-plugins-bad"},
 {"cgit": "gstreamer/gst-plugins-base", "gitlab": "gstreamer/gst-plugins-base"},
 {"cgit": "gstreamer/gst-plugins-good", "gitlab": "gstreamer/gst-plugins-good"},
 {"cgit": "gstreamer/gst-plugins-ugly", "gitlab": "gstreamer/gst-plugins-ugly"},
 {"cgit": "gstreamer/gst-python", "gitlab": "gstreamer/gst-python"},
 {"cgit": "gstreamer/gst-rtsp-server", "gitlab": "gstreamer/gst-rtsp-server"},
 {"cgit": "gstreamer/gst-template", "gitlab": "gstreamer/gst-template"},
 {"cgit": "gstreamer/gstreamer-sharp", "gitlab": "gstreamer/gstreamer-sharp"},
 {"cgit": "gstreamer/gstreamer-vaapi", "gitlab": "gstreamer/gstreamer-vaapi"},
 {"cgit": "gstreamer/gstreamer", "gitlab": "gstreamer/gstreamer"},
 {"cgit": "gstreamer/orc", "gitlab": "gstreamer/orc"},
 {"cgit": "gstreamer/www", "gitlab": "gstreamer/www"},
 {"cgit": "gummiboot", "gitlab": "archived-projects/gummiboot"},
 {"cgit": "gypsy", "gitlab": "archived-projects/gypsy"},
 {"cgit": "hal/hal-info", "gitlab": "archived-projects/hal/hal-info"},
 {"cgit": "hal/hal-quirks-site", "gitlab": "archived-projects/hal/hal-quirks-site"},
 {"cgit": "hal/hal", "gitlab": "archived-projects/hal/hal"},
 {"cgit": "hieroglyph", "gitlab": "archived-projects/hieroglyph"},
 {"cgit": "libbacklight", "gitlab": "archived-projects/libbacklight"},
 {"cgit": "libbsd", "gitlab": "libbsd/libbsd"},
 {"cgit": "libdlo", "gitlab": "archived-projects/libdlo"},
 {"cgit": "libevdev", "gitlab": "libevdev/libevdev"},
 {"cgit": "libfprint/fprintd", "gitlab": "libfprint/fprintd"},
 {"cgit": "libfprint/libfprint", "gitlab": "libfprint/libfprint"},
 {"cgit": "liblazy", "gitlab": "archived-projects/liblazy"},
 {"cgit": "libmbim/libmbim", "gitlab": "mobile-broadband/libmbim"},
 {"cgit": "libnice/libnice", "gitlab": "libnice/libnice"},
 {"cgit": "liboil", "gitlab": "archived-projects/liboil"},
 {"cgit": "libopenraw", "gitlab": "libopenraw/libopenraw"},
 {"cgit": "libqmi", "gitlab": "mobile-broadband/libqmi"},
 {"cgit": "libspectre", "gitlab": "libspectre/libspectre"},
 {"cgit": "libxkbcommon", "gitlab": "xorg/lib/libxkbcommon"},
 {"cgit": "libxklavier", "gitlab": "archived-projects/libxklavier"},
 {"cgit": "media-player-info", "gitlab": "media-player-info/media-player-info"},
 {"cgit": "mesa/clover", "gitlab": "mesa/clover"},
 {"cgit": "mesa/crucible", "gitlab": "mesa/crucible"},
 {"cgit": "mesa/demos", "gitlab": "mesa/demos"},
 {"cgit": "mesa/drm", "gitlab": "mesa/drm"},
 {"cgit": "mesa/glu", "gitlab": "mesa/glu"},
 {"cgit": "mesa/glut", "gitlab": "mesa/glut"},
 {"cgit": "mesa/glw", "gitlab": "mesa/glw"},
 {"cgit": "mesa/kmscube", "gitlab": "mesa/kmscube"},
 {"cgit": "mesa/libwsbm", "gitlab": "mesa/libwsbm"},
 {"cgit": "mesa/linux-agp-compat", "gitlab": "mesa/linux-agp-compat"},
 {"cgit": "mesa/mesa", "gitlab": "mesa/mesa"},
 {"cgit": "mesa/r600_demo", "gitlab": "mesa/r600_demo"},
 {"cgit": "mesa/shader-db", "gitlab": "mesa/shader-db"},
 {"cgit": "mesa/tasks", "gitlab": "mesa/tasks"},
 {"cgit": "mesa/vkpipeline-db", "gitlab": "mesa/vkpipeline-db"},
 {"cgit": "mesa/vmwgfx", "gitlab": "mesa/vmwgfx"},
 {"cgit": "nouveau/xf86-video-nouveau", "gitlab": "xorg/driver/xf86-video-nouveau"},
 {"cgit": "papyon", "gitlab": "archived-projects/papyon"},
 {"cgit": "piglit", "gitlab": "mesa/piglit"},
 {"cgit": "pixman", "gitlab": "pixman/pixman"},
 {"cgit": "pkg-config", "gitlab": "pkg-config/pkg-config"},
 {"cgit": "plymouth", "gitlab": "plymouth/plymouth"},
 {"cgit": "pm-utils", "gitlab": "archived-projects/pm-utils"},
 {"cgit": "polkit", "gitlab": "polkit/polkit"},
 {"cgit": "poppler/poppler-data", "gitlab": "poppler/poppler-data"},
 {"cgit": "poppler/poppler-glibmm", "gitlab": "poppler/poppler-glibmm"},
 {"cgit": "poppler/poppler", "gitlab": "poppler/poppler"},
 {"cgit": "poppler/test", "gitlab": "poppler/test"},
 {"cgit": "pulseaudio/paprefs", "gitlab": "pulseaudio/paprefs"},
 {"cgit": "pulseaudio/pavucontrol", "gitlab": "pulseaudio/pavucontrol"},
 {"cgit": "pulseaudio/planet", "gitlab": "pulseaudio/planet"},
 {"cgit": "pulseaudio/pulseaudio", "gitlab": "pulseaudio/pulseaudio"},
 {"cgit": "pulseaudio/reserve", "gitlab": "pulseaudio/reserve"},
 {"cgit": "pulseaudio/webrtc-audio-processing", "gitlab": "pulseaudio/webrtc-audio-processing"},
 {"cgit": "python-geoclue", "gitlab": "geoclue/python-geoclue"},
 {"cgit": "razor", "gitlab": "archived-projects/razor"},
 {"cgit": "realmd/adcli", "gitlab": "realmd/adcli"},
 {"cgit": "realmd/realmd", "gitlab": "realmd/realmd"},
 {"cgit": "sbox2", "gitlab": "archived-projects/sbox2"},
 {"cgit": "shared-desktop-ontologies", "gitlab": "archived-projects/shared-desktop-ontologies"},
 {"cgit": "shave", "gitlab": "archived-projects/shave"},
 {"cgit": "sound-theme-freedesktop", "gitlab": "xdg/xdg-sound-theme"},
 {"cgit": "spice/libcacard", "gitlab": "spice/libcacard"},
 {"cgit": "spice/linux/vd_agent", "gitlab": "spice/linux/vd_agent"},
 {"cgit": "spice/qemu", "gitlab": "spice/qemu"},
 {"cgit": "spice/slirp", "gitlab": "spice/slirp"},
 {"cgit": "spice/spice-common", "gitlab": "spice/spice-common"},
 {"cgit": "spice/spice-gtk", "gitlab": "spice/spice-gtk"},
 {"cgit": "spice/spice-html5", "gitlab": "spice/spice-html5"},
 {"cgit": "spice/spice-jhbuild", "gitlab": "spice/spice-jhbuild"},
 {"cgit": "spice/spice-nsis", "gitlab": "spice/win32/spice-nsis"},
 {"cgit": "spice/spice-protocol", "gitlab": "spice/spice-protocol"},
 {"cgit": "spice/spice-server", "gitlab": "spice/spice-server"},
 {"cgit": "spice/spice-xpi", "gitlab": "spice/spice-xpi"},
 {"cgit": "spice/spice", "gitlab": "spice/spice"},
 {"cgit": "spice/spicec", "gitlab": "spice/spicec"},
 {"cgit": "spice/usbredir", "gitlab": "spice/usbredir"},
 {"cgit": "spice/vdesktop", "gitlab": "spice/vdesktop"},
 {"cgit": "spice/win32/qxl-wddm-dod", "gitlab": "spice/win32/qxl-wddm-dod"},
 {"cgit": "spice/win32/qxl", "gitlab": "spice/win32/qxl"},
 {"cgit": "spice/win32/usbclerk", "gitlab": "spice/win32/usbclerk"},
 {"cgit": "spice/win32/usbdk", "gitlab": "spice/win32/usbdk"},
 {"cgit": "spice/win32/vd_agent", "gitlab": "spice/win32/vd_agent"},
 {"cgit": "spice/win32/vdi_port", "gitlab": "spice/win32/vdi_port"},
 {"cgit": "startup-notification", "gitlab": "xdg/startup-notification"},
 {"cgit": "swfdec/swfdec-directfb", "gitlab": "archived-projects/swfdec/swfdec-directfb"},
 {"cgit": "swfdec/swfdec-gnome", "gitlab": "archived-projects/swfdec/swfdec-gnome"},
 {"cgit": "swfdec/swfdec-konqueror", "gitlab": "archived-projects/swfdec/swfdec-konqueror"},
 {"cgit": "swfdec/swfdec-mozilla", "gitlab": "archived-projects/swfdec/swfdec-mozilla"},
 {"cgit": "swfdec/swfdec", "gitlab": "archived-projects/swfdec/swfdec"},
 {"cgit": "system-tools-backends", "gitlab": "archived-projects/system-tools-backends"},
 {"cgit": "tango/tango-icon-library", "gitlab": "tango/tango-icon-library"},
 {"cgit": "tango/tango-icon-theme", "gitlab": "tango/tango-icon-theme"},
 {"cgit": "tartan", "gitlab": "tartan/tartan"},
 {"cgit": "telepathy/telepathy-butterfly", "gitlab": "telepathy/telepathy-butterfly"},
 {"cgit": "telepathy/telepathy-doc", "gitlab": "telepathy/telepathy-doc"},
 {"cgit": "telepathy/telepathy-farsight", "gitlab": "telepathy/telepathy-farsight"},
 {"cgit": "telepathy/telepathy-farstream", "gitlab": "telepathy/telepathy-farstream"},
 {"cgit": "telepathy/telepathy-gabble", "gitlab": "telepathy/telepathy-gabble"},
 {"cgit": "telepathy/telepathy-glib", "gitlab": "telepathy/telepathy-glib"},
 {"cgit": "telepathy/telepathy-haze", "gitlab": "telepathy/telepathy-haze"},
 {"cgit": "telepathy/telepathy-idle", "gitlab": "telepathy/telepathy-idle"},
 {"cgit": "telepathy/telepathy-logger", "gitlab": "telepathy/telepathy-logger"},
 {"cgit": "telepathy/telepathy-mission-control", "gitlab": "telepathy/telepathy-mission-control"},
 {"cgit": "telepathy/telepathy-origami", "gitlab": "telepathy/telepathy-origami"},
 {"cgit": "telepathy/telepathy-phoenix", "gitlab": "telepathy/telepathy-phoenix"},
 {"cgit": "telepathy/telepathy-python", "gitlab": "telepathy/telepathy-python"},
 {"cgit": "telepathy/telepathy-qt-farstream", "gitlab": "telepathy/telepathy-qt-farstream"},
 {"cgit": "telepathy/telepathy-qt", "gitlab": "telepathy/telepathy-qt"},
 {"cgit": "telepathy/telepathy-qt4-yell", "gitlab": "telepathy/telepathy-qt4-yell"},
 {"cgit": "telepathy/telepathy-rakia", "gitlab": "telepathy/telepathy-rakia"},
 {"cgit": "telepathy/telepathy-ring", "gitlab": "telepathy/telepathy-ring"},
 {"cgit": "telepathy/telepathy-salut", "gitlab": "telepathy/telepathy-salut"},
 {"cgit": "telepathy/telepathy-spec", "gitlab": "telepathy/telepathy-spec"},
 {"cgit": "telepathy/telepathy-ssh-contact", "gitlab": "telepathy/telepathy-ssh-contact"},
 {"cgit": "telepathy/telepathy-sunshine", "gitlab": "telepathy/telepathy-sunshine"},
 {"cgit": "telepathy/telepathy-yell", "gitlab": "telepathy/telepathy-yell"},
 {"cgit": "twin", "gitlab": "archived-projects/twin"},
 {"cgit": "uchardet/uchardet", "gitlab": "uchardet/uchardet"},
 {"cgit": "upower", "gitlab": "upower/upower"},
 {"cgit": "vdpau/libvdpau", "gitlab": "vdpau/libvdpau"},
 {"cgit": "vdpau/vdpauinfo", "gitlab": "vdpau/vdpauinfo"},
 {"cgit": "virglrenderer", "gitlab": "virgl/virglrenderer"},
 {"cgit": "wayland/libinput", "gitlab": "libinput/libinput"},
 {"cgit": "wayland/wayland-protocols", "gitlab": "wayland/wayland-protocols"},
 {"cgit": "wayland/wayland", "gitlab": "wayland/wayland"},
 {"cgit": "wayland/weston", "gitlab": "wayland/weston"},
 {"cgit": "wocky", "gitlab": "telepathy/wocky"},
 {"cgit": "xcb/demo", "gitlab": "xorg/app/xcb-demo"},
 {"cgit": "xcb/historic", "gitlab": "xorg/lib/historic-xcb"},
 {"cgit": "xcb/libXamine", "gitlab": "xorg/lib/libxamine"},
 {"cgit": "xcb/libxcb", "gitlab": "xorg/lib/libxcb"},
 {"cgit": "xcb/proto", "gitlab": "xorg/proto/xcbproto"},
 {"cgit": "xcb/pthread-stubs", "gitlab": "xorg/lib/pthread-stubs"},
 {"cgit": "xcb/util-common-m4", "gitlab": "xorg/util/xcb-util-m4"},
 {"cgit": "xcb/util-cursor", "gitlab": "xorg/lib/libxcb-cursor"},
 {"cgit": "xcb/util-errors", "gitlab": "xorg/lib/libxcb-errors"},
 {"cgit": "xcb/util-image", "gitlab": "xorg/lib/libxcb-image"},
 {"cgit": "xcb/util-keysyms", "gitlab": "xorg/lib/libxcb-keysyms"},
 {"cgit": "xcb/util-old", "gitlab": "xorg/lib/libxcb-util-old"},
 {"cgit": "xcb/util-renderutil", "gitlab": "xorg/lib/libxcb-render-util"},
 {"cgit": "xcb/util-wm", "gitlab": "xorg/lib/libxcb-wm"},
 {"cgit": "xcb/util", "gitlab": "xorg/lib/libxcb-util"},
 {"cgit": "xcb/xhsb", "gitlab": "xorg/lib/xhsb"},
 {"cgit": "xcb/xpyb", "gitlab": "xorg/lib/xpyb"},
 {"cgit": "xdg/dapi-dbus", "gitlab": "xdg/dapi-dbus"},
 {"cgit": "xdg/dapi", "gitlab": "xdg/dapi"},
 {"cgit": "xdg/default-icon-theme", "gitlab": "xdg/default-icon-theme"},
 {"cgit": "xdg/desktop-file-utils", "gitlab": "xdg/desktop-file-utils"},
 {"cgit": "xdg/libxdg-vfs", "gitlab": "xdg/libxdg-vfs"},
 {"cgit": "xdg/mpris-spec", "gitlab": "mpris/mpris-spec"},
 {"cgit": "xdg/pyxdg", "gitlab": "xdg/pyxdg"},
 {"cgit": "xdg/shared-mime-info", "gitlab": "xdg/shared-mime-info"},
 {"cgit": "xdg/xdg-specs", "gitlab": "xdg/xdg-specs"},
 {"cgit": "xdg/xdg-user-dirs", "gitlab": "xdg/xdg-user-dirs"},
 {"cgit": "xdg/xdg-utils", "gitlab": "xdg/xdg-utils"},
 {"cgit": "xdg/xdgmime", "gitlab": "xdg/xdgmime"},
 {"cgit": "xkeyboard-config", "gitlab": "xkeyboard-config/xkeyboard-config"},
 {"cgit": "xorg/app/appres", "gitlab": "xorg/app/appres"},
 {"cgit": "xorg/app/bdftopcf", "gitlab": "xorg/util/bdftopcf"},
 {"cgit": "xorg/app/beforelight", "gitlab": "xorg/app/beforelight"},
 {"cgit": "xorg/app/bitmap", "gitlab": "xorg/app/bitmap"},
 {"cgit": "xorg/app/compiz", "gitlab": "xorg/app/compiz"},
 {"cgit": "xorg/app/constype", "gitlab": "xorg/app/constype"},
 {"cgit": "xorg/app/edid-decode", "gitlab": "xorg/app/edid-decode"},
 {"cgit": "xorg/app/editres", "gitlab": "xorg/app/editres"},
 {"cgit": "xorg/app/fdclock", "gitlab": "xorg/app/fdclock"},
 {"cgit": "xorg/app/fonttosfnt", "gitlab": "xorg/app/fonttosfnt"},
 {"cgit": "xorg/app/fslsfonts", "gitlab": "xorg/app/fslsfonts"},
 {"cgit": "xorg/app/fstobdf", "gitlab": "xorg/app/fstobdf"},
 {"cgit": "xorg/app/glxcompmgr", "gitlab": "xorg/app/glxcompmgr"},
 {"cgit": "xorg/app/grandr", "gitlab": "xorg/app/grandr"},
 {"cgit": "xorg/app/iceauth", "gitlab": "xorg/app/iceauth"},
 {"cgit": "xorg/app/ico", "gitlab": "xorg/app/ico"},
 {"cgit": "xorg/app/intel-gen4asm", "gitlab": "xorg/app/intel-gen4asm"},
 {"cgit": "xorg/app/intel-gpu-tools", "gitlab": "drm/igt-gpu-tools"},
 {"cgit": "xorg/app/lbxproxy", "gitlab": "xorg/app/lbxproxy"},
 {"cgit": "xorg/app/listres", "gitlab": "xorg/app/listres"},
 {"cgit": "xorg/app/luit", "gitlab": "xorg/app/luit"},
 {"cgit": "xorg/app/makepsres", "gitlab": "xorg/app/makepsres"},
 {"cgit": "xorg/app/mdm", "gitlab": "xorg/app/mdm"},
 {"cgit": "xorg/app/mkcfm", "gitlab": "xorg/app/mkcfm"},
 {"cgit": "xorg/app/mkcomposecache", "gitlab": "xorg/app/mkcomposecache"},
 {"cgit": "xorg/app/mkfontdir", "gitlab": "xorg/app/mkfontdir"},
 {"cgit": "xorg/app/mkfontscale", "gitlab": "xorg/app/mkfontscale"},
 {"cgit": "xorg/app/oclock", "gitlab": "xorg/app/oclock"},
 {"cgit": "xorg/app/pclcomp", "gitlab": "xorg/app/pclcomp"},
 {"cgit": "xorg/app/proxymngr", "gitlab": "xorg/app/proxymngr"},
 {"cgit": "xorg/app/rendercheck", "gitlab": "xorg/test/rendercheck"},
 {"cgit": "xorg/app/rgb", "gitlab": "xorg/app/rgb"},
 {"cgit": "xorg/app/rstart", "gitlab": "xorg/app/rstart"},
 {"cgit": "xorg/app/scripts", "gitlab": "xorg/app/scripts"},
 {"cgit": "xorg/app/sessreg", "gitlab": "xorg/app/sessreg"},
 {"cgit": "xorg/app/setxkbmap", "gitlab": "xorg/app/setxkbmap"},
 {"cgit": "xorg/app/showfont", "gitlab": "xorg/app/showfont"},
 {"cgit": "xorg/app/smproxy", "gitlab": "xorg/app/smproxy"},
 {"cgit": "xorg/app/transset", "gitlab": "xorg/app/transset"},
 {"cgit": "xorg/app/twm", "gitlab": "xorg/app/twm"},
 {"cgit": "xorg/app/viewres", "gitlab": "xorg/app/viewres"},
 {"cgit": "xorg/app/x11perf", "gitlab": "xorg/test/x11perf"},
 {"cgit": "xorg/app/xauth", "gitlab": "xorg/app/xauth"},
 {"cgit": "xorg/app/xbacklight", "gitlab": "xorg/app/xbacklight"},
 {"cgit": "xorg/app/xbiff", "gitlab": "xorg/app/xbiff"},
 {"cgit": "xorg/app/xcalc", "gitlab": "xorg/app/xcalc"},
 {"cgit": "xorg/app/xclipboard", "gitlab": "xorg/app/xclipboard"},
 {"cgit": "xorg/app/xclock", "gitlab": "xorg/app/xclock"},
 {"cgit": "xorg/app/xcmsdb", "gitlab": "xorg/app/xcmsdb"},
 {"cgit": "xorg/app/xcompmgr", "gitlab": "xorg/app/xcompmgr"},
 {"cgit": "xorg/app/xconsole", "gitlab": "xorg/app/xconsole"},
 {"cgit": "xorg/app/xcursorgen", "gitlab": "xorg/app/xcursorgen"},
 {"cgit": "xorg/app/xdbedizzy", "gitlab": "xorg/app/xdbedizzy"},
 {"cgit": "xorg/app/xditview", "gitlab": "xorg/app/xditview"},
 {"cgit": "xorg/app/xdm", "gitlab": "xorg/app/xdm"},
 {"cgit": "xorg/app/xdpyinfo", "gitlab": "xorg/app/xdpyinfo"},
 {"cgit": "xorg/app/xdriinfo", "gitlab": "xorg/app/xdriinfo"},
 {"cgit": "xorg/app/xedit", "gitlab": "xorg/app/xedit"},
 {"cgit": "xorg/app/xev", "gitlab": "xorg/app/xev"},
 {"cgit": "xorg/app/xeyes", "gitlab": "xorg/app/xeyes"},
 {"cgit": "xorg/app/xf86dga", "gitlab": "xorg/app/xf86dga"},
 {"cgit": "xorg/app/xfd", "gitlab": "xorg/app/xfd"},
 {"cgit": "xorg/app/xfindproxy", "gitlab": "xorg/app/xfindproxy"},
 {"cgit": "xorg/app/xfontsel", "gitlab": "xorg/app/xfontsel"},
 {"cgit": "xorg/app/xfs", "gitlab": "xorg/app/xfs"},
 {"cgit": "xorg/app/xfsinfo", "gitlab": "xorg/app/xfsinfo"},
 {"cgit": "xorg/app/xfwp", "gitlab": "xorg/app/xfwp"},
 {"cgit": "xorg/app/xgamma", "gitlab": "xorg/app/xgamma"},
 {"cgit": "xorg/app/xgc", "gitlab": "xorg/app/xgc"},
 {"cgit": "xorg/app/xhost", "gitlab": "xorg/app/xhost"},
 {"cgit": "xorg/app/xinit", "gitlab": "xorg/app/xinit"},
 {"cgit": "xorg/app/xinput", "gitlab": "xorg/app/xinput"},
 {"cgit": "xorg/app/xkbcomp", "gitlab": "xorg/app/xkbcomp"},
 {"cgit": "xorg/app/xkbevd", "gitlab": "xorg/app/xkbevd"},
 {"cgit": "xorg/app/xkbprint", "gitlab": "xorg/app/xkbprint"},
 {"cgit": "xorg/app/xkbutils", "gitlab": "xorg/app/xkbutils"},
 {"cgit": "xorg/app/xkill", "gitlab": "xorg/app/xkill"},
 {"cgit": "xorg/app/xload", "gitlab": "xorg/app/xload"},
 {"cgit": "xorg/app/xlogo", "gitlab": "xorg/app/xlogo"},
 {"cgit": "xorg/app/xlsatoms", "gitlab": "xorg/app/xlsatoms"},
 {"cgit": "xorg/app/xlsclients", "gitlab": "xorg/app/xlsclients"},
 {"cgit": "xorg/app/xlsfonts", "gitlab": "xorg/app/xlsfonts"},
 {"cgit": "xorg/app/xmag", "gitlab": "xorg/app/xmag"},
 {"cgit": "xorg/app/xman", "gitlab": "xorg/app/xman"},
 {"cgit": "xorg/app/xmessage", "gitlab": "xorg/app/xmessage"},
 {"cgit": "xorg/app/xmh", "gitlab": "xorg/app/xmh"},
 {"cgit": "xorg/app/xmodmap", "gitlab": "xorg/app/xmodmap"},
 {"cgit": "xorg/app/xmore", "gitlab": "xorg/app/xmore"},
 {"cgit": "xorg/app/xoo", "gitlab": "xorg/app/xoo"},
 {"cgit": "xorg/app/xphelloworld", "gitlab": "xorg/app/xphelloworld"},
 {"cgit": "xorg/app/xplsprinters", "gitlab": "xorg/app/xplsprinters"},
 {"cgit": "xorg/app/xpr", "gitlab": "xorg/app/xpr"},
 {"cgit": "xorg/app/xprehashprinterlist", "gitlab": "xorg/app/xprehashprinterlist"},
 {"cgit": "xorg/app/xprop", "gitlab": "xorg/app/xprop"},
 {"cgit": "xorg/app/xrandr", "gitlab": "xorg/app/xrandr"},
 {"cgit": "xorg/app/xrdb", "gitlab": "xorg/app/xrdb"},
 {"cgit": "xorg/app/xrefresh", "gitlab": "xorg/app/xrefresh"},
 {"cgit": "xorg/app/xresponse", "gitlab": "xorg/app/xresponse"},
 {"cgit": "xorg/app/xrestop", "gitlab": "xorg/app/xrestop"},
 {"cgit": "xorg/app/xrx", "gitlab": "xorg/app/xrx"},
 {"cgit": "xorg/app/xscope", "gitlab": "xorg/app/xscope"},
 {"cgit": "xorg/app/xset", "gitlab": "xorg/app/xset"},
 {"cgit": "xorg/app/xsetmode", "gitlab": "xorg/app/xsetmode"},
 {"cgit": "xorg/app/xsetpointer", "gitlab": "xorg/app/xsetpointer"},
 {"cgit": "xorg/app/xsetroot", "gitlab": "xorg/app/xsetroot"},
 {"cgit": "xorg/app/xshowdamage", "gitlab": "xorg/app/xshowdamage"},
 {"cgit": "xorg/app/xsm", "gitlab": "xorg/app/xsm"},
 {"cgit": "xorg/app/xstdcmap", "gitlab": "xorg/app/xstdcmap"},
 {"cgit": "xorg/app/xtrap", "gitlab": "xorg/app/xtrap"},
 {"cgit": "xorg/app/xtsttopng", "gitlab": "xorg/test/xtsttopng"},
 {"cgit": "xorg/app/xvidtune", "gitlab": "xorg/app/xvidtune"},
 {"cgit": "xorg/app/xvinfo", "gitlab": "xorg/app/xvinfo"},
 {"cgit": "xorg/app/xwd", "gitlab": "xorg/app/xwd"},
 {"cgit": "xorg/app/xwininfo", "gitlab": "xorg/app/xwininfo"},
 {"cgit": "xorg/app/xwud", "gitlab": "xorg/app/xwud"},
 {"cgit": "xorg/data/bitmaps", "gitlab": "xorg/data/bitmaps"},
 {"cgit": "xorg/data/cursors", "gitlab": "xorg/data/cursors"},
 {"cgit": "xorg/doc/xorg-docs", "gitlab": "xorg/doc/xorg-docs"},
 {"cgit": "xorg/doc/xorg-sgml-doctools", "gitlab": "xorg/doc/xorg-sgml-doctools"},
 {"cgit": "xorg/driver/glamor", "gitlab": "xorg/driver/glamor-history"},
 {"cgit": "xorg/driver/xf86-input-acecad", "gitlab": "xorg/driver/xf86-input-acecad"},
 {"cgit": "xorg/driver/xf86-input-aiptek", "gitlab": "xorg/driver/xf86-input-aiptek"},
 {"cgit": "xorg/driver/xf86-input-calcomp", "gitlab": "xorg/driver/xf86-input-calcomp"},
 {"cgit": "xorg/driver/xf86-input-citron", "gitlab": "xorg/driver/xf86-input-citron"},
 {"cgit": "xorg/driver/xf86-input-digitaledge", "gitlab": "xorg/driver/xf86-input-digitaledge"},
 {"cgit": "xorg/driver/xf86-input-dmc", "gitlab": "xorg/driver/xf86-input-dmc"},
 {"cgit": "xorg/driver/xf86-input-dynapro", "gitlab": "xorg/driver/xf86-input-dynapro"},
 {"cgit": "xorg/driver/xf86-input-elo2300", "gitlab": "xorg/driver/xf86-input-elo2300"},
 {"cgit": "xorg/driver/xf86-input-elographics", "gitlab": "xorg/driver/xf86-input-elographics"},
 {"cgit": "xorg/driver/xf86-input-evdev", "gitlab": "xorg/driver/xf86-input-evdev"},
 {"cgit": "xorg/driver/xf86-input-fpit", "gitlab": "xorg/driver/xf86-input-fpit"},
 {"cgit": "xorg/driver/xf86-input-hyperpen", "gitlab": "xorg/driver/xf86-input-hyperpen"},
 {"cgit": "xorg/driver/xf86-input-jamstudio", "gitlab": "xorg/driver/xf86-input-jamstudio"},
 {"cgit": "xorg/driver/xf86-input-joystick", "gitlab": "xorg/driver/xf86-input-joystick"},
 {"cgit": "xorg/driver/xf86-input-keyboard", "gitlab": "xorg/driver/xf86-input-keyboard"},
 {"cgit": "xorg/driver/xf86-input-libinput", "gitlab": "xorg/driver/xf86-input-libinput"},
 {"cgit": "xorg/driver/xf86-input-magellan", "gitlab": "xorg/driver/xf86-input-magellan"},
 {"cgit": "xorg/driver/xf86-input-magictouch", "gitlab": "xorg/driver/xf86-input-magictouch"},
 {"cgit": "xorg/driver/xf86-input-microtouch", "gitlab": "xorg/driver/xf86-input-microtouch"},
 {"cgit": "xorg/driver/xf86-input-mouse", "gitlab": "xorg/driver/xf86-input-mouse"},
 {"cgit": "xorg/driver/xf86-input-mutouch", "gitlab": "xorg/driver/xf86-input-mutouch"},
 {"cgit": "xorg/driver/xf86-input-palmax", "gitlab": "xorg/driver/xf86-input-palmax"},
 {"cgit": "xorg/driver/xf86-input-penmount", "gitlab": "xorg/driver/xf86-input-penmount"},
 {"cgit": "xorg/driver/xf86-input-sample", "gitlab": "xorg/driver/xf86-input-sample"},
 {"cgit": "xorg/driver/xf86-input-spaceorb", "gitlab": "xorg/driver/xf86-input-spaceorb"},
 {"cgit": "xorg/driver/xf86-input-summa", "gitlab": "xorg/driver/xf86-input-summa"},
 {"cgit": "xorg/driver/xf86-input-synaptics", "gitlab": "xorg/driver/xf86-input-synaptics"},
 {"cgit": "xorg/driver/xf86-input-tek4957", "gitlab": "xorg/driver/xf86-input-tek4957"},
 {"cgit": "xorg/driver/xf86-input-ur98", "gitlab": "xorg/driver/xf86-input-ur98"},
 {"cgit": "xorg/driver/xf86-input-vmmouse", "gitlab": "xorg/driver/xf86-input-vmmouse"},
 {"cgit": "xorg/driver/xf86-input-void", "gitlab": "xorg/driver/xf86-input-void"},
 {"cgit": "xorg/driver/xf86-video-amdgpu", "gitlab": "xorg/driver/xf86-video-amdgpu"},
 {"cgit": "xorg/driver/xf86-video-apm", "gitlab": "xorg/driver/xf86-video-apm"},
 {"cgit": "xorg/driver/xf86-video-ark", "gitlab": "xorg/driver/xf86-video-ark"},
 {"cgit": "xorg/driver/xf86-video-armsoc", "gitlab": "xorg/driver/xf86-video-armsoc"},
 {"cgit": "xorg/driver/xf86-video-ast", "gitlab": "xorg/driver/xf86-video-ast"},
 {"cgit": "xorg/driver/xf86-video-ati", "gitlab": "xorg/driver/xf86-video-ati"},
 {"cgit": "xorg/driver/xf86-video-chips", "gitlab": "xorg/driver/xf86-video-chips"},
 {"cgit": "xorg/driver/xf86-video-cirrus", "gitlab": "xorg/driver/xf86-video-cirrus"},
 {"cgit": "xorg/driver/xf86-video-cyrix", "gitlab": "xorg/driver/xf86-video-cyrix"},
 {"cgit": "xorg/driver/xf86-video-dummy", "gitlab": "xorg/driver/xf86-video-dummy"},
 {"cgit": "xorg/driver/xf86-video-fbdev", "gitlab": "xorg/driver/xf86-video-fbdev"},
 {"cgit": "xorg/driver/xf86-video-freedreno", "gitlab": "xorg/driver/xf86-video-freedreno"},
 {"cgit": "xorg/driver/xf86-video-geode", "gitlab": "xorg/driver/xf86-video-geode"},
 {"cgit": "xorg/driver/xf86-video-glide", "gitlab": "xorg/driver/xf86-video-glide"},
 {"cgit": "xorg/driver/xf86-video-glint", "gitlab": "xorg/driver/xf86-video-glint"},
 {"cgit": "xorg/driver/xf86-video-i128", "gitlab": "xorg/driver/xf86-video-i128"},
 {"cgit": "xorg/driver/xf86-video-i740", "gitlab": "xorg/driver/xf86-video-i740"},
 {"cgit": "xorg/driver/xf86-video-impact", "gitlab": "xorg/driver/xf86-video-impact"},
 {"cgit": "xorg/driver/xf86-video-imstt", "gitlab": "xorg/driver/xf86-video-imstt"},
 {"cgit": "xorg/driver/xf86-video-intel", "gitlab": "xorg/driver/xf86-video-intel"},
 {"cgit": "xorg/driver/xf86-video-mach64", "gitlab": "xorg/driver/xf86-video-mach64"},
 {"cgit": "xorg/driver/xf86-video-mga", "gitlab": "xorg/driver/xf86-video-mga"},
 {"cgit": "xorg/driver/xf86-video-modesetting", "gitlab": "xorg/driver/xf86-video-modesetting"},
 {"cgit": "xorg/driver/xf86-video-neomagic", "gitlab": "xorg/driver/xf86-video-neomagic"},
 {"cgit": "xorg/driver/xf86-video-nested", "gitlab": "xorg/driver/xf86-video-nested"},
 {"cgit": "xorg/driver/xf86-video-newport", "gitlab": "xorg/driver/xf86-video-newport"},
 {"cgit": "xorg/driver/xf86-video-nsc", "gitlab": "xorg/driver/xf86-video-nsc"},
 {"cgit": "xorg/driver/xf86-video-nv", "gitlab": "xorg/driver/xf86-video-nv"},
 {"cgit": "xorg/driver/xf86-video-omap", "gitlab": "xorg/driver/xf86-video-omap"},
 {"cgit": "xorg/driver/xf86-video-opentegra", "gitlab": "xorg/driver/xf86-video-opentegra"},
 {"cgit": "xorg/driver/xf86-video-qxl", "gitlab": "xorg/driver/xf86-video-qxl"},
 {"cgit": "xorg/driver/xf86-video-r128", "gitlab": "xorg/driver/xf86-video-r128"},
 {"cgit": "xorg/driver/xf86-video-radeonhd", "gitlab": "xorg/driver/xf86-video-radeonhd"},
 {"cgit": "xorg/driver/xf86-video-rendition", "gitlab": "xorg/driver/xf86-video-rendition"},
 {"cgit": "xorg/driver/xf86-video-s3", "gitlab": "xorg/driver/xf86-video-s3"},
 {"cgit": "xorg/driver/xf86-video-s3virge", "gitlab": "xorg/driver/xf86-video-s3virge"},
 {"cgit": "xorg/driver/xf86-video-savage", "gitlab": "xorg/driver/xf86-video-savage"},
 {"cgit": "xorg/driver/xf86-video-siliconmotion", "gitlab": "xorg/driver/xf86-video-siliconmotion"},
 {"cgit": "xorg/driver/xf86-video-sis", "gitlab": "xorg/driver/xf86-video-sis"},
 {"cgit": "xorg/driver/xf86-video-sisusb", "gitlab": "xorg/driver/xf86-video-sisusb"},
 {"cgit": "xorg/driver/xf86-video-sunbw2", "gitlab": "xorg/driver/xf86-video-sunbw2"},
 {"cgit": "xorg/driver/xf86-video-suncg14", "gitlab": "xorg/driver/xf86-video-suncg14"},
 {"cgit": "xorg/driver/xf86-video-suncg3", "gitlab": "xorg/driver/xf86-video-suncg3"},
 {"cgit": "xorg/driver/xf86-video-suncg6", "gitlab": "xorg/driver/xf86-video-suncg6"},
 {"cgit": "xorg/driver/xf86-video-sunffb", "gitlab": "xorg/driver/xf86-video-sunffb"},
 {"cgit": "xorg/driver/xf86-video-sunleo", "gitlab": "xorg/driver/xf86-video-sunleo"},
 {"cgit": "xorg/driver/xf86-video-suntcx", "gitlab": "xorg/driver/xf86-video-suntcx"},
 {"cgit": "xorg/driver/xf86-video-tdfx", "gitlab": "xorg/driver/xf86-video-tdfx"},
 {"cgit": "xorg/driver/xf86-video-tga", "gitlab": "xorg/driver/xf86-video-tga"},
 {"cgit": "xorg/driver/xf86-video-trident", "gitlab": "xorg/driver/xf86-video-trident"},
 {"cgit": "xorg/driver/xf86-video-tseng", "gitlab": "xorg/driver/xf86-video-tseng"},
 {"cgit": "xorg/driver/xf86-video-v4l", "gitlab": "xorg/driver/xf86-video-v4l"},
 {"cgit": "xorg/driver/xf86-video-vbox", "gitlab": "xorg/driver/xf86-video-vbox"},
 {"cgit": "xorg/driver/xf86-video-vermilion", "gitlab": "xorg/driver/xf86-video-vermilion"},
 {"cgit": "xorg/driver/xf86-video-vesa", "gitlab": "xorg/driver/xf86-video-vesa"},
 {"cgit": "xorg/driver/xf86-video-vga", "gitlab": "xorg/driver/xf86-video-vga"},
 {"cgit": "xorg/driver/xf86-video-via", "gitlab": "xorg/driver/xf86-video-via"},
 {"cgit": "xorg/driver/xf86-video-vmware", "gitlab": "xorg/driver/xf86-video-vmware"},
 {"cgit": "xorg/driver/xf86-video-voodoo", "gitlab": "xorg/driver/xf86-video-voodoo"},
 {"cgit": "xorg/driver/xf86-video-wayland", "gitlab": "xorg/driver/xf86-video-wayland"},
 {"cgit": "xorg/driver/xf86-video-wsfb", "gitlab": "xorg/driver/xf86-video-wsfb"},
 {"cgit": "xorg/driver/xf86-video-xgi", "gitlab": "xorg/driver/xf86-video-xgi"},
 {"cgit": "xorg/driver/xf86-video-xgixp", "gitlab": "xorg/driver/xf86-video-xgixp"},
 {"cgit": "xorg/font/adobe-100dpi", "gitlab": "xorg/font/adobe-100dpi"},
 {"cgit": "xorg/font/adobe-75dpi", "gitlab": "xorg/font/adobe-75dpi"},
 {"cgit": "xorg/font/adobe-utopia-100dpi", "gitlab": "xorg/font/adobe-utopia-100dpi"},
 {"cgit": "xorg/font/adobe-utopia-75dpi", "gitlab": "xorg/font/adobe-utopia-75dpi"},
 {"cgit": "xorg/font/adobe-utopia-type1", "gitlab": "xorg/font/adobe-utopia-type1"},
 {"cgit": "xorg/font/alias", "gitlab": "xorg/font/alias"},
 {"cgit": "xorg/font/arabic-misc", "gitlab": "xorg/font/arabic-misc"},
 {"cgit": "xorg/font/bh-100dpi", "gitlab": "xorg/font/bh-100dpi"},
 {"cgit": "xorg/font/bh-75dpi", "gitlab": "xorg/font/bh-75dpi"},
 {"cgit": "xorg/font/bh-lucidatypewriter-100dpi", "gitlab": "xorg/font/bh-lucidatypewriter-100dpi"},
 {"cgit": "xorg/font/bh-lucidatypewriter-75dpi", "gitlab": "xorg/font/bh-lucidatypewriter-75dpi"},
 {"cgit": "xorg/font/bh-ttf", "gitlab": "xorg/font/bh-ttf"},
 {"cgit": "xorg/font/bh-type1", "gitlab": "xorg/font/bh-type1"},
 {"cgit": "xorg/font/bitstream-100dpi", "gitlab": "xorg/font/bitstream-100dpi"},
 {"cgit": "xorg/font/bitstream-75dpi", "gitlab": "xorg/font/bitstream-75dpi"},
 {"cgit": "xorg/font/bitstream-speedo", "gitlab": "xorg/font/bitstream-speedo"},
 {"cgit": "xorg/font/bitstream-type1", "gitlab": "xorg/font/bitstream-type1"},
 {"cgit": "xorg/font/cronyx-cyrillic", "gitlab": "xorg/font/cronyx-cyrillic"},
 {"cgit": "xorg/font/cursor-misc", "gitlab": "xorg/font/cursor-misc"},
 {"cgit": "xorg/font/daewoo-misc", "gitlab": "xorg/font/daewoo-misc"},
 {"cgit": "xorg/font/dec-misc", "gitlab": "xorg/font/dec-misc"},
 {"cgit": "xorg/font/encodings", "gitlab": "xorg/font/encodings"},
 {"cgit": "xorg/font/ibm-type1", "gitlab": "xorg/font/ibm-type1"},
 {"cgit": "xorg/font/isas-misc", "gitlab": "xorg/font/isas-misc"},
 {"cgit": "xorg/font/jis-misc", "gitlab": "xorg/font/jis-misc"},
 {"cgit": "xorg/font/micro-misc", "gitlab": "xorg/font/micro-misc"},
 {"cgit": "xorg/font/misc-cyrillic", "gitlab": "xorg/font/misc-cyrillic"},
 {"cgit": "xorg/font/misc-ethiopic", "gitlab": "xorg/font/misc-ethiopic"},
 {"cgit": "xorg/font/misc-meltho", "gitlab": "xorg/font/misc-meltho"},
 {"cgit": "xorg/font/misc-misc", "gitlab": "xorg/font/misc-misc"},
 {"cgit": "xorg/font/mutt-misc", "gitlab": "xorg/font/mutt-misc"},
 {"cgit": "xorg/font/schumacher-misc", "gitlab": "xorg/font/schumacher-misc"},
 {"cgit": "xorg/font/screen-cyrillic", "gitlab": "xorg/font/screen-cyrillic"},
 {"cgit": "xorg/font/sony-misc", "gitlab": "xorg/font/sony-misc"},
 {"cgit": "xorg/font/sun-misc", "gitlab": "xorg/font/sun-misc"},
 {"cgit": "xorg/font/util", "gitlab": "xorg/font/util"},
 {"cgit": "xorg/font/winitzki-cyrillic", "gitlab": "xorg/font/winitzki-cyrillic"},
 {"cgit": "xorg/font/xfree86-type1", "gitlab": "xorg/font/xfree86-type1"},
 {"cgit": "xorg/foundation/bylaws", "gitlab": "xorgfoundation/bylaws"},
 {"cgit": "xorg/lib/libAppleWM", "gitlab": "xorg/lib/libapplewm"},
 {"cgit": "xorg/lib/libFS", "gitlab": "xorg/lib/libfs"},
 {"cgit": "xorg/lib/libICE", "gitlab": "xorg/lib/libice"},
 {"cgit": "xorg/lib/libSM", "gitlab": "xorg/lib/libsm"},
 {"cgit": "xorg/lib/libWindowsWM", "gitlab": "xorg/lib/libwindowswm"},
 {"cgit": "xorg/lib/libX11", "gitlab": "xorg/lib/libx11"},
 {"cgit": "xorg/lib/libXCalibrate", "gitlab": "xorg/lib/libxcalibrate"},
 {"cgit": "xorg/lib/libXRes", "gitlab": "xorg/lib/libxres"},
 {"cgit": "xorg/lib/libXScrnSaver", "gitlab": "xorg/lib/libxscrnsaver"},
 {"cgit": "xorg/lib/libXTrap", "gitlab": "xorg/lib/libxtrap"},
 {"cgit": "xorg/lib/libXau", "gitlab": "xorg/lib/libxau"},
 {"cgit": "xorg/lib/libXaw", "gitlab": "xorg/lib/libxaw"},
 {"cgit": "xorg/lib/libXaw3d", "gitlab": "xorg/lib/libxaw3d"},
 {"cgit": "xorg/lib/libXcomposite", "gitlab": "xorg/lib/libxcomposite"},
 {"cgit": "xorg/lib/libXcursor", "gitlab": "xorg/lib/libxcursor"},
 {"cgit": "xorg/lib/libXdamage", "gitlab": "xorg/lib/libxdamage"},
 {"cgit": "xorg/lib/libXdmcp", "gitlab": "xorg/lib/libxdmcp"},
 {"cgit": "xorg/lib/libXevie", "gitlab": "xorg/lib/libxevie"},
 {"cgit": "xorg/lib/libXext", "gitlab": "xorg/lib/libxext"},
 {"cgit": "xorg/lib/libXfixes", "gitlab": "xorg/lib/libxfixes"},
 {"cgit": "xorg/lib/libXfont", "gitlab": "xorg/lib/libxfont"},
 {"cgit": "xorg/lib/libXfontcache", "gitlab": "xorg/lib/libxfontcache"},
 {"cgit": "xorg/lib/libXft", "gitlab": "xorg/lib/libxft"},
 {"cgit": "xorg/lib/libXi", "gitlab": "xorg/lib/libxi"},
 {"cgit": "xorg/lib/libXinerama", "gitlab": "xorg/lib/libxinerama"},
 {"cgit": "xorg/lib/libXlg3d", "gitlab": "xorg/lib/libxlg3d"},
 {"cgit": "xorg/lib/libXmu", "gitlab": "xorg/lib/libxmu"},
 {"cgit": "xorg/lib/libXp", "gitlab": "xorg/lib/libxp"},
 {"cgit": "xorg/lib/libXpm", "gitlab": "xorg/lib/libxpm"},
 {"cgit": "xorg/lib/libXpresent", "gitlab": "xorg/lib/libxpresent"},
 {"cgit": "xorg/lib/libXprintAppUtil", "gitlab": "xorg/lib/libxprintapputil"},
 {"cgit": "xorg/lib/libXprintUtil", "gitlab": "xorg/lib/libxprintutil"},
 {"cgit": "xorg/lib/libXrandr", "gitlab": "xorg/lib/libxrandr"},
 {"cgit": "xorg/lib/libXrandrUtils", "gitlab": "xorg/lib/libxrandrutils"},
 {"cgit": "xorg/lib/libXrender", "gitlab": "xorg/lib/libxrender"},
 {"cgit": "xorg/lib/libXt", "gitlab": "xorg/lib/libxt"},
 {"cgit": "xorg/lib/libXtst", "gitlab": "xorg/lib/libxtst"},
 {"cgit": "xorg/lib/libXv", "gitlab": "xorg/lib/libxv"},
 {"cgit": "xorg/lib/libXvMC", "gitlab": "xorg/lib/libxvmc"},
 {"cgit": "xorg/lib/libXxf86dga", "gitlab": "xorg/lib/libxxf86dga"},
 {"cgit": "xorg/lib/libXxf86misc", "gitlab": "xorg/lib/libxxf86misc"},
 {"cgit": "xorg/lib/libXxf86rush", "gitlab": "xorg/lib/libxxf86rush"},
 {"cgit": "xorg/lib/libXxf86vm", "gitlab": "xorg/lib/libxxf86vm"},
 {"cgit": "xorg/lib/libdmx", "gitlab": "xorg/lib/libdmx"},
 {"cgit": "xorg/lib/libfontenc", "gitlab": "xorg/lib/libfontenc"},
 {"cgit": "xorg/lib/liblbxutil", "gitlab": "xorg/lib/liblbxutil"},
 {"cgit": "xorg/lib/liboldX", "gitlab": "xorg/lib/liboldx"},
 {"cgit": "xorg/lib/libpciaccess", "gitlab": "xorg/lib/libpciaccess"},
 {"cgit": "xorg/lib/libxcwm", "gitlab": "xorg/lib/libxcwm"},
 {"cgit": "xorg/lib/libxkbfile", "gitlab": "xorg/lib/libxkbfile"},
 {"cgit": "xorg/lib/libxkbui", "gitlab": "xorg/lib/libxkbui"},
 {"cgit": "xorg/lib/libxshmfence", "gitlab": "xorg/lib/libxshmfence"},
 {"cgit": "xorg/lib/libxtrans", "gitlab": "xorg/lib/libxtrans"},
 {"cgit": "xorg/proto/applewmproto", "gitlab": "xorg/proto/applewmproto"},
 {"cgit": "xorg/proto/bigreqsproto", "gitlab": "xorg/proto/bigreqsproto"},
 {"cgit": "xorg/proto/calibrateproto", "gitlab": "xorg/proto/calibrateproto"},
 {"cgit": "xorg/proto/compositeproto", "gitlab": "xorg/proto/compositeproto"},
 {"cgit": "xorg/proto/damageproto", "gitlab": "xorg/proto/damageproto"},
 {"cgit": "xorg/proto/dmxproto", "gitlab": "xorg/proto/dmxproto"},
 {"cgit": "xorg/proto/dri2proto", "gitlab": "xorg/proto/dri2proto"},
 {"cgit": "xorg/proto/dri3proto", "gitlab": "xorg/proto/dri3proto"},
 {"cgit": "xorg/proto/evieproto", "gitlab": "xorg/proto/evieproto"},
 {"cgit": "xorg/proto/fixesproto", "gitlab": "xorg/proto/fixesproto"},
 {"cgit": "xorg/proto/fontcacheproto", "gitlab": "xorg/proto/fontcacheproto"},
 {"cgit": "xorg/proto/fontsproto", "gitlab": "xorg/proto/fontsproto"},
 {"cgit": "xorg/proto/glproto", "gitlab": "xorg/proto/glproto"},
 {"cgit": "xorg/proto/inputproto", "gitlab": "xorg/proto/inputproto"},
 {"cgit": "xorg/proto/kbproto", "gitlab": "xorg/proto/kbproto"},
 {"cgit": "xorg/proto/lg3dproto", "gitlab": "xorg/proto/lg3dproto"},
 {"cgit": "xorg/proto/panoramixproto", "gitlab": "xorg/proto/panoramixproto"},
 {"cgit": "xorg/proto/pmproto", "gitlab": "xorg/proto/pmproto"},
 {"cgit": "xorg/proto/presentproto", "gitlab": "xorg/proto/presentproto"},
 {"cgit": "xorg/proto/printproto", "gitlab": "xorg/proto/printproto"},
 {"cgit": "xorg/proto/randrproto", "gitlab": "xorg/proto/randrproto"},
 {"cgit": "xorg/proto/recordproto", "gitlab": "xorg/proto/recordproto"},
 {"cgit": "xorg/proto/renderproto", "gitlab": "xorg/proto/renderproto"},
 {"cgit": "xorg/proto/resourceproto", "gitlab": "xorg/proto/resourceproto"},
 {"cgit": "xorg/proto/scrnsaverproto", "gitlab": "xorg/proto/scrnsaverproto"},
 {"cgit": "xorg/proto/trapproto", "gitlab": "xorg/proto/trapproto"},
 {"cgit": "xorg/proto/videoproto", "gitlab": "xorg/proto/videoproto"},
 {"cgit": "xorg/proto/windowswmproto", "gitlab": "xorg/proto/windowswmproto"},
 {"cgit": "xorg/proto/x11proto", "gitlab": "xorg/proto/xproto"},
 {"cgit": "xorg/proto/xcmiscproto", "gitlab": "xorg/proto/xcmiscproto"},
 {"cgit": "xorg/proto/xextproto", "gitlab": "xorg/proto/xextproto"},
 {"cgit": "xorg/proto/xf86bigfontproto", "gitlab": "xorg/proto/xf86bigfontproto"},
 {"cgit": "xorg/proto/xf86dgaproto", "gitlab": "xorg/proto/xf86dgaproto"},
 {"cgit": "xorg/proto/xf86driproto", "gitlab": "xorg/proto/xf86driproto"},
 {"cgit": "xorg/proto/xf86miscproto", "gitlab": "xorg/proto/xf86miscproto"},
 {"cgit": "xorg/proto/xf86rushproto", "gitlab": "xorg/proto/xf86rushproto"},
 {"cgit": "xorg/proto/xf86vidmodeproto", "gitlab": "xorg/proto/xf86vidmodeproto"},
 {"cgit": "xorg/proto/xineramaproto", "gitlab": "xorg/proto/xineramaproto"},
 {"cgit": "xorg/proto/xorgproto", "gitlab": "xorg/proto/xorgproto"},
 {"cgit": "xorg/test/xhiv", "gitlab": "xorg/test/xhiv"},
 {"cgit": "xorg/test/xorg-gtest", "gitlab": "xorg/test/xorg-gtest"},
 {"cgit": "xorg/test/xorg-integration-tests", "gitlab": "xorg/test/xorg-integration-tests"},
 {"cgit": "xorg/test/xts", "gitlab": "xorg/test/xts"},
 {"cgit": "xorg/util/cf", "gitlab": "xorg/util/cf"},
 {"cgit": "xorg/util/gccmakedep", "gitlab": "xorg/util/gccmakedep"},
 {"cgit": "xorg/util/imake", "gitlab": "xorg/util/imake"},
 {"cgit": "xorg/util/install-check", "gitlab": "xorg/util/install-check"},
 {"cgit": "xorg/util/lndir", "gitlab": "xorg/util/lndir"},
 {"cgit": "xorg/util/macros", "gitlab": "xorg/util/macros"},
 {"cgit": "xorg/util/makedepend", "gitlab": "xorg/util/makedepend"},
 {"cgit": "xorg/util/modular", "gitlab": "xorg/util/modular"},
 {"cgit": "xorg/util/xmkmf", "gitlab": "xorg/util/xmkmf"},
 {"cgit": "xorg/xprint", "gitlab": "xorg/xserver-xprint"},
 {"cgit": "xorg/xserver", "gitlab": "xorg/xserver"},
 {"cgit": "xqproxy", "gitlab": "archived-projects/xqproxy"},
 {"cgit": "zeitgeist/zeitgeist-datahub", "gitlab": "zeitgeist/zeitgeist-datahub"},
 {"cgit": "zeitgeist/zeitgeist-datasources", "gitlab": "zeitgeist/zeitgeist-datasources"},
 {"cgit": "zeitgeist/zeitgeist", "gitlab": "zeitgeist/zeitgeist"}
]
